<svg xmlns="http://www.w3.org/2000/svg" width="38" height="24" viewBox="0 0 38 24">
    <path fill="#F93F2D" fill-rule="evenodd" d="M33.563 9.861V5.703h-2.965v4.158h-4.27v2.97h4.27v4.278h2.965v-4.277h4.151v-2.97h-4.15zm-21.585-.237v4.752s4.603-.006 6.476-.006c-1.014 3.081-2.592 4.759-6.476 4.759-3.93 0-6.997-3.192-6.997-7.129 0-3.937 3.067-7.129 6.997-7.129 2.078 0 3.42.732 4.651 1.752.985-.987.903-1.128 3.41-3.5A11.923 11.923 0 0 0 11.979 0C5.362 0 0 5.373 0 12s5.363 12 11.978 12c9.889 0 12.306-8.626 11.504-14.376H11.978z"/>
</svg>
